{
  "project_info": {
    "project_number": "20273543298",
    "project_id": "my-project-1492343366025"
  },
  "client": [
    {
      "client_info": {
        "mobilesdk_app_id": "1:20273543298:android:4994c93f32681751",
        "android_client_info": {
          "package_name": "com.example.joze.googlelogin"
        }
      },
      "oauth_client": [
        {
          "client_id": "20273543298-j4scf6m1vv4okj6d6b0i3o3qgvnjep0u.apps.googleusercontent.com",
          "client_type": 3
        }
      ],
      "api_key": [
        {
          "current_key": "AIzaSyDSDQKHfvpPEp9el8hJl2_rS-XqNDw2qPM"
        }
      ],
      "services": {
        "analytics_service": {
          "status": 1
        },
        "appinvite_service": {
          "status": 1,
          "other_platform_oauth_client": []
        },
        "ads_service": {
          "status": 1
        }
      }
    },
    {
      "client_info": {
        "mobilesdk_app_id": "1:20273543298:android:7f9c204ee10c29aa",
        "android_client_info": {
          "package_name": "com.example.joze.pocistime"
        }
      },
      "oauth_client": [
        {
          "client_id": "20273543298-lpo9270vc2ug95rc7fn6c9ar3fgv3163.apps.googleusercontent.com",
          "client_type": 1,
          "android_info": {
            "package_name": "com.example.joze.pocistime",
            "certificate_hash": "82180c535d561cb024f02a0a458463b328239036"
          }
        },
        {
          "client_id": "20273543298-j4scf6m1vv4okj6d6b0i3o3qgvnjep0u.apps.googleusercontent.com",
          "client_type": 3
        }
      ],
      "api_key": [
        {
          "current_key": "AIzaSyDSDQKHfvpPEp9el8hJl2_rS-XqNDw2qPM"
        }
      ],
      "services": {
        "analytics_service": {
          "status": 1
        },
        "appinvite_service": {
          "status": 1,
          "other_platform_oauth_client": []
        },
        "ads_service": {
          "status": 1
        }
      }
    }
  ],
  "configuration_version": "1"
}